%YAML 1.1
%TAG !u! tag:unity3d.com,2011:
--- !u!114 &11400000
MonoBehaviour:
  m_ObjectHideFlags: 0
  m_CorrespondingSourceObject: {fileID: 0}
  m_PrefabInstance: {fileID: 0}
  m_PrefabAsset: {fileID: 0}
  m_GameObject: {fileID: 0}
  m_Enabled: 1
  m_EditorHideFlags: 0
  m_Script: {fileID: 11500000, guid: 94f5b26a996454b4a8ef5b8ffdd412a3, type: 3}
  m_Name: Speed Ability
  m_EditorClassIdentifier: 
  isNoActiveTime: 0
  fastClickNoActiveTime: 0
  manaCost: 0
  name: SpeedBoost
  cooldownTime: 3
  activeTime: 5
  additionalSpeed: 100
  additionalAcceleration: 3
